﻿[
    {
        "salary": 3000,
        "workers": [
            5,
            6
        ]
    },
    {
        "salary": 40000,
        "workers": [
            3
        ]
    },
    {
        "salary": 50000,
        "workers": [
            4
        ]
    },
    {
        "salary": 80000,
        "workers": [
            2
        ]
    },
    {
        "salary": 100000,
        "workers": [
            1
        ]
    }
]