﻿[
    {
        "id": 1,
        "first_name": "Mikhail",
        "last_name": "Ivanov",
        "salary": 100000,
        "department": "HR"
    },
    {
        "id": 2,
        "first_name": "Ivan",
        "last_name": "Zhukov",
        "salary": 80000,
        "department": "Marketing"
    },
    {
        "id": 4,
        "first_name": "Anne",
        "last_name": "Smirnova",
        "salary": 50000,
        "department": "IT"
    }
]